[ {
  "uid" : "489a490717dda9a4",
  "name" : "Provider demo",
  "time" : {
    "start" : 1609179470242,
    "stop" : 1609179471734,
    "duration" : 1492
  },
  "status" : "passed",
  "severity" : "normal"
}, {
  "uid" : "b6fcda65713a8351",
  "name" : "adds 1 + 2 to equal 3",
  "time" : {
    "start" : 1609179469621,
    "stop" : 1609179469625,
    "duration" : 4
  },
  "status" : "passed",
  "severity" : "normal"
} ]