{
  "uid" : "83edc06c07f9ae9e47eb6dd1b683e4e2",
  "children" : [ {
    "name" : "Describe",
    "children" : [ {
      "name" : "adds 1 + 2 to equal 3",
      "uid" : "b6fcda65713a8351",
      "parentUid" : "2bc3a88b64c325058d063ced31cf950e",
      "status" : "passed",
      "time" : {
        "start" : 1609179469621,
        "stop" : 1609179469625,
        "duration" : 4
      },
      "flaky" : false,
      "newFailed" : false,
      "parameters" : [ ]
    } ],
    "uid" : "2bc3a88b64c325058d063ced31cf950e"
  }, {
    "name" : "specs/api.spec.js",
    "children" : [ {
      "name" : "Provider demo",
      "uid" : "489a490717dda9a4",
      "parentUid" : "7d6e98856bb4b17283c20f18b0c4df1e",
      "status" : "passed",
      "time" : {
        "start" : 1609179470242,
        "stop" : 1609179471734,
        "duration" : 1492
      },
      "flaky" : false,
      "newFailed" : false,
      "parameters" : [ ]
    } ],
    "uid" : "specs/api.spec.js"
  } ],
  "name" : "packages"
}