"Status","Start Time","Stop Time","Duration in ms","Parent Suite","Suite","Sub Suite","Test Class","Test Method","Name","Description"
"passed","Mon Dec 28 21:17:49 MSK 2020","Mon Dec 28 21:17:49 MSK 2020","4","","Describe","","Describe","adds 1 + 2 to equal 3","adds 1 + 2 to equal 3",""
"passed","Mon Dec 28 21:17:50 MSK 2020","Mon Dec 28 21:17:51 MSK 2020","1492","","specs/api.spec.js","","specs/api.spec.js","Provider demo","Provider demo",""
